{
  "chromeWebSecurity":false,
  "defaultCommandTimeout": 8000,
  "pageLoadTimeout": 30000,
  
  "env": {
    "url": "https://data.castoredc.com/studies",
    "email" : "remyavinod89@gmail.com",
    "password" : "$Castor123$"
  }
}
  
